Introduction to targets: All in One View
…
OUTPUT

Rows: 344 Columns: 17
── Column specification ────────────────────────────────────────────────────────
Delimiter: ","
chr  (9): studyName, Species, Region, Island, Stage, Individual ID, Clutch C...
dbl  (7): Sample Number, Culmen Length (mm), Culmen Depth (mm), Flipper Leng...
date (1): Date Egg

ℹ Use `spec()` to retrieve the full column specification for this data.
ℹ Specify the column types or set `show_col_types = FALSE` to quiet this message.

OUTPUT

# A tibble: 344 × 17
   studyName `Sample Number` Species         Region Island Stage `Individual ID`
   <chr>               <dbl> <chr>           <chr>  <chr>  <chr> <chr>          
 1 PAL0708                 1 Adelie Penguin… Anvers Torge… Adul… N1A1           
 2 PAL0708                 2 Adelie Penguin… Anvers Torge… Adul… N1A2           
 3 PAL0708                 3 Adelie Penguin… Anvers Torge… Adul… N2A1           
 4 PAL0708                 4 Adelie Penguin… Anvers Torge… Adul… N2A2           
 5 PAL0708                 5 Adelie Penguin… Anvers Torge… Adul… N3A1           
 6 PAL0708                 6 Adelie Penguin… Anvers Torge… Adul… N3A2           
 7 PAL0708                 7 Adelie Penguin… Anvers Torge… Adul… N4A1           
 8 PAL0708                 8 Adelie Penguin… Anvers Torge… Adul… N4A2           
 9 PAL0708                 9 Adelie Penguin… Anvers Torge… Adul… N5A1           
10 PAL0708                10 Adelie Penguin… Anvers Torge… Adul… N5A2           
# ℹ 334 more rows
# ℹ 10 more variables: `Clutch Completion` <chr>, `Date Egg` <date>,
#   `Culmen Length (mm)` <dbl>, `Culmen Depth (mm)` <dbl>,
#   `Flipper Length (mm)` <dbl>, `Body Mass (g)` <dbl>, Sex <chr>,
#   `Delta 15 N (o/oo)` <dbl>, `Delta 13 C (o/oo)` <dbl>, Comments <chr>
…
penguins_data

OUTPUT

# A tibble: 342 × 3
   species                             bill_length_mm bill_depth_mm
   <chr>                                        <dbl>         <dbl>
 1 Adelie Penguin (Pygoscelis adeliae)           39.1          18.7
 2 Adelie Penguin (Pygoscelis adeliae)           39.5          17.4
 3 Adelie Penguin (Pygoscelis adeliae)           40.3          18  
 4 Adelie Penguin (Pygoscelis adeliae)           36.7          19.3
 5 Adelie Penguin (Pygoscelis adeliae)           39.3          20.6
 6 Adelie Penguin (Pygoscelis adeliae)           38.9          17.8
 7 Adelie Penguin (Pygoscelis adeliae)           39.2          19.6
 8 Adelie Penguin (Pygoscelis adeliae)           34.1          18.1
 9 Adelie Penguin (Pygoscelis adeliae)           42            20.2
10 Adelie Penguin (Pygoscelis adeliae)           37.8          17.1
# ℹ 332 more rows
…
Next we will add one more target, a prediction of bill depth based on
each model. These will be needed for plotting the models in the report.
Such a prediction can be obtained with the augment()
function of the broom package.

R

tar_load(models)
augment(models[[1]])

OUTPUT

# A tibble: 342 × 8
   bill_depth_mm bill_length_mm .fitted .resid    .hat .sigma   .cooksd .std.resid
           <dbl>          <dbl>   <dbl>  <dbl>   <dbl>  <dbl>     <dbl>      <dbl>
 1          18.7           39.1    17.6  1.14  0.00521   1.92 0.000924      0.594 
 2          17.4           39.5    17.5 -0.127 0.00485   1.93 0.0000107    -0.0663
 3          18             40.3    17.5  0.541 0.00421   1.92 0.000168      0.282 
 4          19.3           36.7    17.8  1.53  0.00806   1.92 0.00261       0.802 
 5          20.6           39.3    17.5  3.06  0.00503   1.92 0.00641       1.59  
 6          17.8           38.9    17.6  0.222 0.00541   1.93 0.0000364     0.116 
 7          19.6           39.2    17.6  2.05  0.00512   1.92 0.00293       1.07  
 8          18.1           34.1    18.0  0.114 0.0124    1.93 0.0000223     0.0595
 9          20.2           42      17.3  2.89  0.00329   1.92 0.00373       1.50  
10          17.1           37.8    17.7 -0.572 0.00661   1.92 0.000296     -0.298 
# ℹ 332 more rows
…
