Introduction to targets: First targets Workflow
…
OUTPUT

Rows: 344 Columns: 17
── Column specification ────────────────────────────────────────────────────────
Delimiter: ","
chr  (9): studyName, Species, Region, Island, Stage, Individual ID, Clutch C...
dbl  (7): Sample Number, Culmen Length (mm), Culmen Depth (mm), Flipper Leng...
date (1): Date Egg

ℹ Use `spec()` to retrieve the full column specification for this data.
ℹ Specify the column types or set `show_col_types = FALSE` to quiet this message.

OUTPUT

# A tibble: 344 × 17
   studyName `Sample Number` Species         Region Island Stage `Individual ID`
   <chr>               <dbl> <chr>           <chr>  <chr>  <chr> <chr>          
 1 PAL0708                 1 Adelie Penguin… Anvers Torge… Adul… N1A1           
 2 PAL0708                 2 Adelie Penguin… Anvers Torge… Adul… N1A2           
 3 PAL0708                 3 Adelie Penguin… Anvers Torge… Adul… N2A1           
 4 PAL0708                 4 Adelie Penguin… Anvers Torge… Adul… N2A2           
 5 PAL0708                 5 Adelie Penguin… Anvers Torge… Adul… N3A1           
 6 PAL0708                 6 Adelie Penguin… Anvers Torge… Adul… N3A2           
 7 PAL0708                 7 Adelie Penguin… Anvers Torge… Adul… N4A1           
 8 PAL0708                 8 Adelie Penguin… Anvers Torge… Adul… N4A2           
 9 PAL0708                 9 Adelie Penguin… Anvers Torge… Adul… N5A1           
10 PAL0708                10 Adelie Penguin… Anvers Torge… Adul… N5A2           
# ℹ 334 more rows
# ℹ 10 more variables: `Clutch Completion` <chr>, `Date Egg` <date>,
#   `Culmen Length (mm)` <dbl>, `Culmen Depth (mm)` <dbl>,
#   `Flipper Length (mm)` <dbl>, `Body Mass (g)` <dbl>, Sex <chr>,
#   `Delta 15 N (o/oo)` <dbl>, `Delta 13 C (o/oo)` <dbl>, Comments <chr>
…
penguins_data

OUTPUT

# A tibble: 342 × 3
   species                             bill_length_mm bill_depth_mm
   <chr>                                        <dbl>         <dbl>
 1 Adelie Penguin (Pygoscelis adeliae)           39.1          18.7
 2 Adelie Penguin (Pygoscelis adeliae)           39.5          17.4
 3 Adelie Penguin (Pygoscelis adeliae)           40.3          18  
 4 Adelie Penguin (Pygoscelis adeliae)           36.7          19.3
 5 Adelie Penguin (Pygoscelis adeliae)           39.3          20.6
 6 Adelie Penguin (Pygoscelis adeliae)           38.9          17.8
 7 Adelie Penguin (Pygoscelis adeliae)           39.2          19.6
 8 Adelie Penguin (Pygoscelis adeliae)           34.1          18.1
 9 Adelie Penguin (Pygoscelis adeliae)           42            20.2
10 Adelie Penguin (Pygoscelis adeliae)           37.8          17.1
# ℹ 332 more rows
…
