Introduction to targets: Branching
…
Next we will add one more target, a prediction of bill depth based on
each model. These will be needed for plotting the models in the report.
Such a prediction can be obtained with the augment()
function of the broom package.

R

tar_load(models)
augment(models[[1]])

OUTPUT

# A tibble: 342 × 8
   bill_depth_mm bill_length_mm .fitted .resid    .hat .sigma   .cooksd .std.resid
           <dbl>          <dbl>   <dbl>  <dbl>   <dbl>  <dbl>     <dbl>      <dbl>
 1          18.7           39.1    17.6  1.14  0.00521   1.92 0.000924      0.594
 2          17.4           39.5    17.5 -0.127 0.00485   1.93 0.0000107    -0.0663
 3          18             40.3    17.5  0.541 0.00421   1.92 0.000168      0.282
 4          19.3           36.7    17.8  1.53  0.00806   1.92 0.00261       0.802
 5          20.6           39.3    17.5  3.06  0.00503   1.92 0.00641       1.59
 6          17.8           38.9    17.6  0.222 0.00541   1.93 0.0000364     0.116
 7          19.6           39.2    17.6  2.05  0.00512   1.92 0.00293       1.07
 8          18.1           34.1    18.0  0.114 0.0124    1.93 0.0000223     0.0595
 9          20.2           42      17.3  2.89  0.00329   1.92 0.00373       1.50
10          17.1           37.8    17.7 -0.572 0.00661   1.92 0.000296     -0.298
# ℹ 332 more rows
…
